哥布林杀手 6
----------------------------------------------------------------------
作者： 蝸牛くも
插画： 神奈月昇
翻译： 月漫千江
轻之国度 http://www.lightnovel.cn
仅供个人学习交流使用，禁作商业用途
下载後请在24小时内删除，LK不负担任何责任
请尊重翻译、扫图、录入、校对的辛勤劳动，转载请保留信息

------------------------------------------------------------------------